…
``` r
get_timemap("https://www.r-project.org/news.html")
```

    ## # A tibble: 136 x 11
    ##    link      The.R.Foundation..… xfcnbtufsAs.qsp… V     for..i i.s.length i.....if.s.char… X..else.if..s.c… X..else..m.
    ##    <chr>     <chr>               <chr>            <chr> <chr>  <chr>      <chr>            <chr>            <chr>      
    ##  1 !DOCTYPE… <NA>                <NA>             <NA>  <NA>   <NA>       <NA>             <NA>             <NA>       
    ##  2 "html la… <NA>                <NA>             <NA>  <NA>   <NA>       <NA>             <NA>             <NA>       
    ##  3 head      <NA>                <NA>             <NA>  <NA>   <NA>       <NA>             <NA>             <NA>       
    ##  4 "meta ch… <NA>                <NA>             <NA>  <NA>   <NA>       <NA>             <NA>             <NA>       
    ##  5 "meta ht… <NA>                <NA>             <NA>  <NA>   <NA>       <NA>             <NA>             <NA>       
    ##  6 "meta na… <NA>                <NA>             <NA>  <NA>   <NA>       <NA>             <NA>             <NA>       
    ##  7 title>R:… <NA>                <NA>             <NA>  <NA>   <NA>       <NA>             <NA>             <NA>       
    ##  8 ""        <NA>                <NA>             <NA>  <NA>   <NA>       <NA>             <NA>             <NA>       
    ##  9 "link re… <NA>                <NA>             <NA>  <NA>   <NA>       <NA>             <NA>             <NA>       
    ## 10 "link re… <NA>                <NA>             <NA>  <NA>   <NA>       <NA>             <NA>             <NA>       
    ## # ... with 126 more rows, and 2 more variables: X..document.write.m. <chr>, X..... <chr>
…
