Tools to Work with Internet Archive Wayback Machine APIs • wayback
…
## # A tibble: 7 x 3
##   link                                                                            rel           ts                 
##   <chr>                                                                           <chr>         <dttm>             
## 1 https://www.r-project.org/news.html                                             original      NA                 
## 2 http://web.archive.org/web/timemap/link/https://www.r-project.org/news.html     timemap       NA                 
## 3 http://web.archive.org/web/https://www.r-project.org/news.html                  timegate      NA                 
## 4 http://web.archive.org/web/20041015031109/http://www.r-project.org:80/news.html first memento 2004-10-15 03:11:09
## 5 http://web.archive.org/web/20180717184942/https://www.r-project.org/news.html   prev memento  2018-07-17 18:49:42
## 6 http://web.archive.org/web/20180912073722/https://www.r-project.org/news.html   memento       2018-09-12 07:37:22
## 7 http://web.archive.org/web/20180912073722/https://www.r-project.org/news.html   last memento  2018-09-12 07:37:22

get_timemap("https://www.r-project.org/news.html")

## # A tibble: 136 x 11
##    link      The.R.Foundation..… xfcnbtufsAs.qsp… V     for..i i.s.length i.....if.s.char… X..else.if..s.c… X..else..m.
##    <chr>     <chr>               <chr>            <chr> <chr>  <chr>      <chr>            <chr>            <chr>      
##  1 !DOCTYPE… <NA>                <NA>             <NA>  <NA>   <NA>       <NA>             <NA>             <NA>       
##  2 "html la… <NA>                <NA>             <NA>  <NA>   <NA>       <NA>             <NA>             <NA>       
##  3 head      <NA>                <NA>             <NA>  <NA>   <NA>       <NA>             <NA>             <NA>       
##  4 "meta ch… <NA>                <NA>             <NA>  <NA>   <NA>       <NA>             <NA>             <NA>       
##  5 "meta ht… <NA>                <NA>             <NA>  <NA>   <NA>       <NA>             <NA>             <NA>       
##  6 "meta na… <NA>                <NA>             <NA>  <NA>   <NA>       <NA>             <NA>             <NA>       
##  7 title>R:… <NA>                <NA>             <NA>  <NA>   <NA>       <NA>             <NA>             <NA>       
##  8 ""        <NA>                <NA>             <NA>  <NA>   <NA>       <NA>             <NA>             <NA>       
##  9 "link re… <NA>                <NA>             <NA>  <NA>   <NA>       <NA>             <NA>             <NA>       
## 10 "link re… <NA>                <NA>             <NA>  <NA>   <NA>       <NA>             <NA>             <NA>       
## # ... with 126 more rows, and 2 more variables: X..document.write.m. <chr>, X..... <chr>
…
