Intro to the ‘CDX Basic Query’ Interface • wayback
…
# read the resource from that point in time using the "raw" 
# interface so as not to mangle the data.
dat <- read_memento(csv$original[9], as.POSIXct(csv$timestamp[9]), "raw")

# read it in
readr::read_csv(dat, col_names = c("iso2c", "regcod", "name"))
#> Parsed with column specification:
#> cols(
#>   iso2c = col_character(),
#>   regcod = col_character(),
#>   name = col_character()
#> )
#> # A tibble: 4,066 x 3
#>    iso2c regcod name               
#>    <chr> <chr>  <chr>              
#>  1 AD    02     Canillo            
#>  2 AD    03     Encamp             
#>  3 AD    04     La Massana         
#>  4 AD    05     Ordino             
#>  5 AD    06     Sant Julia de Loria
#>  6 AD    07     Andorra la Vella   
#>  7 AD    08     Escaldes-Engordany 
#>  8 AE    01     Abu Dhabi          
#>  9 AE    02     Ajman              
#> 10 AE    03     Dubai              
#> # ... with 4,056 more rows
…
