Intro to Mementos • wayback
…
The calendar-menu viewer thing at IA is really the “timemap”. I like to work with this as it’s the point-in-time memento list of all the crawls. It’s the second link above so we’ll read it in:

(tm <- get_timemap(rss$link[2]))
#> # A tibble: 46 x 5
#>    rel           link                     type      from      datetime    
#>    <chr>         <chr>                    <chr>     <chr>     <chr>       
#>  1 original      http://www.dailyecho.co… <NA>      <NA>      <NA>        
#>  2 self          http://web.archive.org/… applicat… Sun, 17 … <NA>        
#>  3 timegate      http://web.archive.org   <NA>      <NA>      <NA>        
#>  4 first memento http://web.archive.org/… <NA>      <NA>      Sun, 17 May…
#>  5 memento       http://web.archive.org/… <NA>      <NA>      Thu, 13 Aug…
#>  6 memento       http://web.archive.org/… <NA>      <NA>      Thu, 12 Nov…
#>  7 memento       http://web.archive.org/… <NA>      <NA>      Tue, 12 Jan…
#>  8 memento       http://web.archive.org/… <NA>      <NA>      Mon, 12 Jul…
#>  9 memento       http://web.archive.org/… <NA>      <NA>      Sat, 27 Nov…
#> 10 memento       http://web.archive.org/… <NA>      <NA>      Wed, 29 Jun…
#> # ... with 36 more rows
…
